{
    "CACHE_L_CB": 0,
    "CACHE_P_CB": 1,
    "G_CB_RES_DEST_LEVEL": 2,
    "INPUT_SIZE_L_1": 4092,
    "INPUT_SIZE_L_2": 4092,
    "L_CB_RES_DEST_LEVEL": 0,
    "L_CB_SIZE_L_1": 1024,
    "L_CB_SIZE_L_2": 128,
    "NUM_WG_L_1": 256,
    "NUM_WG_L_2": 128,
    "NUM_WI_L_1": 4,
    "NUM_WI_L_2": 32,
    "OCL_DIM_L_1": 1,
    "OCL_DIM_L_2": 0,
    "P_CB_RES_DEST_LEVEL": 0,
    "P_CB_SIZE_L_1": 64,
    "P_CB_SIZE_L_2": 2
}