{
    "num_instances_train": 322,
    "num_instances_test": 323,
    "num_attributes": 260,
    "num_labels": 19,
    "num_sv_model": 64,
    "01_rbf_tuning_configs": 10000,
    "01_rbf_max_time": 1440,
    "02_linear_tuning_configs": 10000,
    "02_linear_max_time": 1440,
    "03_error_update_tuning_configs": 3000,
    "03_error_update_max_time": 300,
    "04_update_bias_tuning_configs": 1500,
    "04_update_bias_max_time": 180,
    "05_eval_rbf_configs": 5000,
    "05_eval_rbf_max_time": 2160,
    "06_eval_rbf_score_configs": 5000,
    "06_eval_rbf_score_max_time": 1440
}
