{
    "num_instances_train": 17413,
    "num_instances_test": 1935,
    "num_attributes": 5000,
    "num_labels": 201,
    "num_sv_model": 256,
    "01_rbf_tuning_configs": 10000,
    "01_rbf_max_time": 2160,
    "02_linear_tuning_configs": 10000,
    "02_linear_max_time": 2160,
    "03_error_update_tuning_configs": 3000,
    "03_error_update_max_time": 300,
    "04_update_bias_tuning_configs": 1500,
    "04_update_bias_max_time": 180,
    "05_eval_rbf_configs": 5000,
    "05_eval_rbf_max_time": 2160,
    "06_eval_rbf_score_configs": 5000,
    "06_eval_rbf_score_max_time": 1440
}
